[gd_scene load_steps=3 format=2]

[ext_resource path="res://tileset.tres" type="TileSet" id=1]
[ext_resource path="res://scenes/tilemap_base.gd" type="Script" id=2]

[node name="physics-tilemap" type="RigidBody2D"]
continuous_cd = 2
linear_damp = 0.0
angular_damp = 0.0

[node name="TileMap" type="TileMap" parent="."]
tile_set = ExtResource( 1 )
cell_size = Vector2( 16, 16 )
collision_use_parent = true
format = 1
tile_data = PoolIntArray( 0, 2, 0 )

[node name="tilemap_chunker" type="Node" parent="."]
script = ExtResource( 2 )
